module gitea.com/go-chi/binding

go 1.13

require (
	github.com/go-chi/chi/v5 v5.0.4
	github.com/goccy/go-json v0.9.5
	github.com/stretchr/testify v1.3.0
	github.com/unknwon/com v0.0.0-20190804042917-757f69c95f3e
)
